{
    "reddit": {
        "sources": [
            "https://twitter.com/Fenix86/status/1468715302447988739"
        ]
    },
    "volkswagen": {
        "sources": [
            "https://twitter.com/jthoms1/status/1468644427761696777"
        ]
    },
    "cloud-four": {
        "sources": [
            "https://mastodon.social/@cloudfour/110940955377773397"
        ]
    },
    "eleventy": {
        "sources": [
            "https://fediverse.zachleat.com/@zachleat/110940472500138687"
        ]
    }
}
